Analysis of simulated GISP data
…
the month of isolation (0 = January, 11 = December)

the 2-fold dilution y

the months since the start of the dataset t

a combined clinic/year label

dat = read_tsv('data/simulated_gisp_data.tsv') %>%
  mutate(t = (year - min(year)) * 12 + month,
         clinic_year = str_c(clinic, '_', year))

dat

## # A tibble: 56,047 x 7
##    isolate_id clinic    year month     y     t clinic_year
##         <int> <chr>    <int> <int> <int> <dbl> <chr>      
##  1          1 clinic01     1     0     1    0. clinic01_1 
##  2          2 clinic01     1     0     0    0. clinic01_1 
##  3          3 clinic01     1     0     0    0. clinic01_1 
##  4          4 clinic01     1     0     1    0. clinic01_1 
##  5          5 clinic01     1     0     1    0. clinic01_1 
##  6          6 clinic01     1     0     1    0. clinic01_1 
##  7          7 clinic01     1     0     1    0. clinic01_1 
##  8          8 clinic01     1     0     1    0. clinic01_1 
##  9          9 clinic01     1     0     1    0. clinic01_1 
## 10         10 clinic01     1     0     1    0. clinic01_1 
## # ... with 56,037 more rows
…
